{
  "project_info": {
    "project_number": "965299480486",
    "firebase_url": "https://hazel-airlock-94112.firebaseio.com",
    "project_id": "hazel-airlock-94112"
  },
  "client": [
    {
      "client_info": {
        "mobilesdk_app_id": "1:965299480486:android:46fe232fafe295d7",
        "android_client_info": {
          "package_name": "com.uaebarq.uaebarq"
        }
      },
      "oauth_client": [
        {
          "client_id": "965299480486-f52jbsbkimaqahqblra86b7ctdifo30d.apps.googleusercontent.com",
          "client_type": 1,
          "android_info": {
            "package_name": "com.uaebarq.uaebarq",
            "certificate_hash": "c666d7e764f6b7cede7ec29f46b368a228ae5bae"
          }
        },
        {
          "client_id": "965299480486-fvvh6lrmhbe4jvuhdhh418h5nkkad71p.apps.googleusercontent.com",
          "client_type": 1,
          "android_info": {
            "package_name": "com.uaebarq.uaebarq",
            "certificate_hash": "5e436434e2fb34c4dcfdf98745c19f1e4572c57c"
          }
        },
        {
          "client_id": "965299480486-30fud7d3c9hft5rrlapq6kvblrafpdcv.apps.googleusercontent.com",
          "client_type": 3
        }
      ],
      "api_key": [
        {
          "current_key": "AIzaSyA5-hZZ8wPumA8zh-ZEBuYLZT6MF-PPUKk"
        }
      ],
      "services": {
        "analytics_service": {
          "status": 1
        },
        "appinvite_service": {
          "status": 2,
          "other_platform_oauth_client": [
            {
              "client_id": "965299480486-30fud7d3c9hft5rrlapq6kvblrafpdcv.apps.googleusercontent.com",
              "client_type": 3
            }
          ]
        },
        "ads_service": {
          "status": 2
        }
      }
    }
  ],
  "configuration_version": "1"
}