{
  "project_info": {
    "project_number": "525435719047",
    "firebase_url": "https://uaebarqbarq.firebaseio.com",
    "project_id": "uaebarqbarq",
    "storage_bucket": "uaebarqbarq.appspot.com"
  },
  "client": [
    {
      "client_info": {
        "mobilesdk_app_id": "1:525435719047:android:83cc7e842b035897",
        "android_client_info": {
          "package_name": "com.uaebarq.uaebarqbundle"
        }
      },
      "oauth_client": [
        {
          "client_id": "525435719047-sqnoknvgq89pqqnclpja2f24cr5m0i4v.apps.googleusercontent.com",
          "client_type": 3
        }
      ],
      "api_key": [
        {
          "current_key": "AIzaSyA2KxPYfJ76oxMZTSXkijY2D1YRRZz-Jss"
        }
      ],
      "services": {
        "analytics_service": {
          "status": 1
        },
        "appinvite_service": {
          "status": 1,
          "other_platform_oauth_client": []
        },
        "ads_service": {
          "status": 2
        }
      }
    }
  ],
  "configuration_version": "1"
}